<svg xmlns="http://www.w3.org/2000/svg" role="img" height="16" width="16" viewBox="0 0 16 16">
    <path fill="none" d="M0 0h16v16H0z"/>
    <path fill="currentColor" d="M3 2h3v12H3zm7 0h3v12h-3z"/>
</svg>