<svg xmlns="http://www.w3.org/2000/svg" version="1.1" width="111" height="36" viewBox="2 25 68 22"
     preserveAspectRatio="xMidYMid meet">
    <g>
        <path
          d="M7.29,42.7830l1.07,-2.05l0.5,2.05L7.29,42.7830ZM7.39,37.0456l-4.89,9.34l2.9,0l0.71,-1.36l3.28,0l0.32,1.36l2.9,0l-2.24,-9.34L7.39,37.0456L7.39,37.0456Z M17.18,41.4128l-1.24,0L15.94,39.5239l1.24,0c0.76,0,1.04,0.38,1.04,0.95C18.22,41.04,17.93,41.41,17.18,41.4128M21.06,40.4300c0,-2.15,-1.45,-3.38,-3.49,-3.38l-4.43,0l0,9.34l2.79,0l0,-2.72l0.68,0l0.56,0l1.35,2.73l2.9,0l-1.73,-3.3C20.55,42.55,21.06,41.64,21.06,40.4300 M21.47,37.0456L21.47,39.5221L24.12,39.5221L24.12,46.3886L25.71,46.3886L26.91,44.0903L26.91,39.5221L29.3,39.5221L30.6,37.0456Z M37.13,25.6121L39.92,25.6121L39.92,34.9538L37.13,34.9538L37.13,25.6121Z M13.38,25.6166l-1.25,2.4l0.77,0c1.38,0,2.25,0.88,2.25,2.27c0,1.37,-0.87,2.25,-2.25,2.25l-0.87,0l0,-4.33l-2.7,5.16l0,1.59l3.76,0c3.03,0,4.81,-1.83,4.81,-4.67C17.89,27.53,16.23,25.73,13.38,25.6166 M18.63,34.9540L25.76,34.9540L25.76,32.4777L21.42,32.4777L21.42,31.4680L25.41,31.4680L25.41,29.0979L21.42,29.0979L21.42,28.0885L25.76,28.0885L25.76,25.6122L18.63,25.6122Z           M30.73,31.2653L29.37,25.6121L26.47,25.6121L28.71,34.9536L31.69,34.9536L36.59,25.6121L33.68,25.6121Z M60.37,25.6114L60.37,28.0881L63.01,28.0881L63.01,34.9546L64.6,34.9546L65.81,32.6562L65.81,28.0881L68.2,28.0881L69.5,25.6114Z M45.25,31.3500l1.07,-2.05l0.49,2.05L45.25,31.3500ZM45.36,25.6121l-4.89,9.34l2.9,0l0.71,-1.36L47.35,33.5926l0.32,1.36l2.9,0l-2.24,-9.34L45.36,25.6121Z           M56.98,30.0372L53.86,25.6121L51.1,25.6121L51.1,34.9540L53.89,34.9540L53.89,30.2096L57.36,34.9540L59.77,34.9540L59.77,25.6121L56.98,25.6121Z"/>
    </g>
</svg>