<svg xmlns="http://www.w3.org/2000/svg" width="24" height="24" viewBox="0 0 16 16">
    <path fill-rule="evenodd"
          d="M2.293 7.293l5-5a1 1 0 0 1 1.497 1.32l-.083.094L4.414 8l4.293 4.293a1 1 0 0 1-1.32 1.497l-.094-.083-5-5a1 1 0 0 1-.083-1.32l.083-.094 5-5-5 5zm5 0l5-5a1 1 0 0 1 1.497 1.32l-.083.094L9.414 8l4.293 4.293a1 1 0 0 1-1.32 1.497l-.094-.083-5-5a1 1 0 0 1-.083-1.32l.083-.094 5-5-5 5z"
          fill="currentColor"
    />
</svg>