<svg xmlns="http://www.w3.org/2000/svg" width="24" height="24" viewBox="0 0 18 18" preserveAspectRatio="xMidYMid meet" focusable="false">
    <path
      d="M15.965 8.3c-.28-2.82-2.243-5.13-4.865-5.957v-.02a6.912 6.912 0 0 0-1.14-.25A6.986 6.986 0 0 0 9 2C5.136 2 2 5.136 2 9s3.136 7 7 7a7.003 7.003 0 0 0 6.965-7.7zM8.3 13.93C5.873 13.585 4 11.52 4 9c0-.25.038-.488.073-.727L6.9 11.1v.7c0 .77.63 1.4 1.4 1.4v.73zm4.487-1.7a1.37 1.37 0 0 0-.987-.43h-.7V9.7c0-.385-.315-.7-.7-.7H6.2V7.6h1.4c.385 0 .7-.315.7-.7V5.5h1.4a1.4 1.4 0 0 0 1.35-1.05A4.993 4.993 0 0 1 14 9c0 1.24-.467 2.358-1.213 3.23z"
      fill-rule="evenodd"/>
</svg>