<svg width="16" height="16" viewBox="0 0 16 16" fill="none" xmlns="http://www.w3.org/2000/svg">
    <path
      d="M1.94141 3.88281H3.23569H13.5899"
      stroke="white"
      stroke-opacity="0.9"
      stroke-width="1.29428"
      stroke-linecap="round"
      stroke-linejoin="round"/>
    <path
      d="M5.17714 3.88287V2.58859C5.17714 2.24533 5.3135 1.91612 5.55623 1.6734C5.79895 1.43067 6.12816 1.29431 6.47142 1.29431H9.05998C9.40325 1.29431 9.73245 1.43067 9.97518 1.6734C10.2179 1.91612 10.3543 2.24533 10.3543 2.58859V3.88287M12.2957 3.88287V12.9428C12.2957 13.2861 12.1593 13.6153 11.9166 13.858C11.6739 14.1008 11.3447 14.2371 11.0014 14.2371H4.53C4.18673 14.2371 3.85753 14.1008 3.6148 13.858C3.37208 13.6153 3.23572 13.2861 3.23572 12.9428V3.88287H12.2957Z"
      stroke="white"
      stroke-opacity="0.9"
      stroke-width="1.29428"
      stroke-linecap="round"
      stroke-linejoin="round"/>
    <path
      d="M6.47144 7.11853V11.0014"
      stroke="white"
      stroke-opacity="0.9"
      stroke-width="1.29428"
      stroke-linecap="round"
      stroke-linejoin="round"/>
    <path
      d="M9.05994 7.11853V11.0014"
      stroke="white" stroke-opacity="0.9"
      stroke-width="1.29428"
      stroke-linecap="round"
      stroke-linejoin="round"/>
</svg>